{
	"name": "August",
	"abbreviation": "August",
	"talks": [{
			"presenter": {
				"name": ""
			},
			"presentation": {
				"title": "SecDSM 101 - August 2018",
				"links": [{
					"url": "https://www.youtube.com/watch?v=Ttr2jzmso6k",
					"type": "youtube"
				}]
			}
		},
		{
			"presenter": {
				"name": "Andy Robbins and Rohan Vazarkar"
			},
			"presentation": {
				"title": "BloodHound: He Attac, but he also Protec",
				"links": [{
					"url": "https://www.youtube.com/watch?v=hHfxZug1HHo",
					"type": "youtube"
				}]
			}
		},
		{
			"presenter": {
				"name": "Brandon Murphy"
			},
			"presentation": {
				"title": "Phishing Investigation Maturity Model - A Discussion",
				"links": [{
					"url": "https://www.youtube.com/watch?v=JAGIwNNRZS4",
					"type": "youtube"
				}]
			}
		}
	]
}