{
  "name": "May",
  "abbreviation": "May",
    "talks": [
      {
        "presenter": {
          "name": "Nate Subra"
        },
        "presentation":{
          "title": "Gophish",
          "description": "Gophish is a phishing framework that makes the simulation of real-world phishing attack dead-simple. The idea behind gophish is simple – make industry-grade phishing training available to everyone."
        }
    },
      {
        "presenter": {
          "name": "Nicholas Starke"
        },
        "presentation": {
          "title": "Exploiting IP Cameras",
          "description": "A presentation on hacking web based interfaces on IP cameras."
        }
    },
      {
        "presenter": {
          "name": "Tom Pohl"
        },
        "presentation": {
          "title": "THOTCON 0x07 Review",
          "description": "everal SecDSM attendees made the trip to Chicago to attend THOTCON this year.  Tom will be discussing his experience at THOTCON 0x7.  Tom participated in the THOTCON CTF, coming in second place by a single point."
        }
    }
    ]
}
