{
	"name": "June",
	"abbreviation": "June",
	"talks": [{
			"presenter": {
				"name": ""
			},
			"presentation": {
				"title": "SecDSM 101 - June 2018",
				"links": [{
					"url": "https://www.youtube.com/watch?v=z7TcBnHjKLQ",
					"type": "youtube"
				}]
			}
		},
		{
			"presenter": {
				"name": "Ryan Walker and Ben Schmitt"
			},
			"presentation": {
				"title": "Canaries in your data center, not the mine",
				"links": [{
					"url": "https://www.youtube.com/watch?v=I-3URcA6eaI",
					"type": "youtube"
				}]
			}
		},
		{
			"presenter": {
				"name": "Ryan Rost"
			},
			"presentation": {
				"title": "Intro to Bloodhound",
				"links": [{
					"url": "https://www.youtube.com/watch?v=lZHXUdZEp8Q",
					"type": "youtube"
				}]
			}
		},
		{
			"presenter": {
				"name": "Aaron Tekippe"
			},
			"presentation": {
				"title": "Driving Change Without Authority: Sales Skills for InfoSec Pros",
				"links": [{
					"url": "https://www.youtube.com/watch?v=cpl3IAD2SLc",
					"type": "youtube"
				}]
			}
		}
	]
}